<svg width="60" height="60" viewBox="0 0 60 60" version="1.1" xmlns="http://www.w3.org/2000/svg" xmlns:xlink="http://www.w3.org/1999/xlink">
<title>ico_transportasi</title>
<desc>Created using Figma</desc>
<g id="Canvas" transform="translate(17 -6216)">
<g id="ico_transportasi">
<g id="Group">
<g id="Group">
<g id="Ellipse">
<use xlink:href="#path0_fill" transform="translate(-17 6216)" fill="#F1F7FF"/>
</g>
<g id="Vector">
<use xlink:href="#path1_fill" transform="translate(-10 6217)" fill="#0052A8"/>
</g>
</g>
<g id="Vector">
<use xlink:href="#path2_fill" transform="translate(5.27417 6256.88)" fill="#0052A8"/>
</g>
<g id="Vector">
<use xlink:href="#path3_fill" transform="translate(19.3744 6256.88)" fill="#0052A8"/>
</g>
<g id="Vector">
<use xlink:href="#path4_fill" transform="translate(6.44958 6236.43)" fill="#0052A8"/>
</g>
</g>
</g>
</g>
<defs>
<path id="path0_fill" d="M 60 30C 60 46.5685 46.5685 60 30 60C 13.4315 60 0 46.5685 0 30C 0 13.4315 13.4315 0 30 0C 46.5685 0 60 13.4315 60 30Z"/>
<path id="path1_fill" d="M 47 24.1669C 47 17.7116 44.5557 11.6423 40.1168 7.07818C 35.6795 2.51342 29.7772 -1.26604e-11 23.5 -1.26604e-11C 17.2227 -1.26604e-11 11.3205 2.51342 6.88319 7.07829C 2.44414 11.6424 -1.4456e-07 17.7118 -1.4456e-07 24.167C -1.4456e-07 24.4918 0.00517752 24.8228 0.0189477 25.1547C 0.0069401 25.2255 -1.4456e-07 25.2998 -1.4456e-07 25.375L -1.4456e-07 56.7929C -1.4456e-07 57.4584 0.525028 58 1.17388 58L 45.8261 58C 46.4751 58 47 57.4584 47 56.7929L 47 25.3749C 47 25.2997 46.9932 25.2254 46.9811 25.1546C 46.9932 24.8236 47 24.4926 47 24.1669ZM 34.0752 33.8321L 26.18 33.8321L 27.9425 26.583L 34.0752 26.583L 34.0752 33.8321ZM 25.5208 26.5831L 23.7582 33.8322L 21.4792 33.8322L 23.2418 26.5831L 25.5208 26.5831ZM 34.0752 24.1669L 12.9248 24.1669L 12.9248 18.125C 12.9248 17.4586 13.4514 16.917 14.1003 16.917L 32.8996 16.917C 33.5486 16.917 34.0752 17.4586 34.0752 18.125L 34.0752 24.1669ZM 20.82 26.5831L 19.0574 33.8322L 12.9248 33.8322L 12.9248 26.5831L 20.82 26.5831ZM 12.9248 36.2499L 34.0752 36.2499L 34.0752 44.7071C 34.0752 45.3744 33.5486 45.9179 32.8996 45.9179L 14.1003 45.9179C 13.4513 45.9179 12.9248 45.3744 12.9248 44.7071L 12.9248 36.2499ZM 16.0006 48.3321L 30.9993 48.3321L 32.1732 50.75L 14.8267 50.75L 16.0006 48.3321ZM 13.651 53.1679L 33.3488 53.1679L 34.5245 55.5822L 12.4755 55.5822L 13.651 53.1679ZM 44.6505 25.6493L 44.6505 55.5821L 37.1512 55.5821L 33.5916 48.2631C 35.2062 47.932 36.4249 46.463 36.4249 44.7071L 36.4249 18.125C 36.4249 16.1258 34.8447 14.4999 32.8997 14.4999L 14.1003 14.4999C 12.1553 14.4999 10.5751 16.1257 10.5751 18.125L 10.5751 44.7071C 10.5751 46.463 11.7937 47.932 13.4083 48.2631L 9.84873 55.5821L 2.3494 55.5821L 2.3494 25.6493C 2.37353 25.5404 2.38377 25.4262 2.37871 25.3121C 2.35976 24.9288 2.3494 24.543 2.3494 24.1669C 2.3494 18.3568 4.54921 12.8954 8.54409 8.78717C 12.5392 4.67906 17.8509 2.4169 23.5 2.4169C 29.1491 2.4169 34.4608 4.67895 38.4558 8.78717C 42.4508 12.8954 44.6505 18.3568 44.6505 24.1669C 44.6505 24.5448 44.6401 24.9297 44.6212 25.3121C 44.6161 25.4264 44.6264 25.5396 44.6505 25.6493Z"/>
<path id="path2_fill" d="M 1.17553 2.41792C 1.82449 2.41792 2.35117 1.87631 2.35117 1.20715C 2.35117 0.541607 1.82449 -1.60411e-06 1.17553 -1.60411e-06C 0.526681 -1.60411e-06 2.01711e-07 0.541607 2.01711e-07 1.20715C 2.01711e-07 1.87631 0.526681 2.41792 1.17553 2.41792Z"/>
<path id="path3_fill" d="M 1.17553 2.41792C 1.82449 2.41792 2.35117 1.87631 2.35117 1.20715C 2.35117 0.541607 1.82449 -1.60411e-06 1.17553 -1.60411e-06C 0.526568 -1.60411e-06 -4.57211e-07 0.541607 -4.57211e-07 1.20715C -4.57211e-07 1.87631 0.526568 2.41792 1.17553 2.41792Z"/>
<path id="path4_fill" d="M 12.9248 -2.76571e-08L 1.17564 -2.76571e-08C 0.526681 -2.76571e-08 7.79949e-07 0.540702 7.79949e-07 1.20806C 7.79949e-07 1.8762 0.526681 2.4169 1.17564 2.4169L 12.9248 2.4169C 13.5736 2.4169 14.1003 1.8762 14.1003 1.20806C 14.1003 0.540815 13.5736 -2.76571e-08 12.9248 -2.76571e-08Z"/>
</defs>
</svg>
